…
## Hypothesis 1

1)An increase in the length of time spent in shared toilet setting 2)
increases the level of indoor CO2 from exhaled air 3) which increases
the exposure and susceptibility to indoor airborne infection 4) when two
or more individuals share a toilet setting

``` r
#cleaning data
df %>% 
mutate ()
```

    ## # A tibble: 104 x 12
    ## # Groups:   id [104]
    ##    particip~1 start~2 stop_~3 durat~4 mn_60   sec total~5 gender toile~6 activ~7
    ##    <chr>      <chr>   <chr>   <chr>   <int> <int>   <int> <chr>  <chr>   <chr>  
    ##  1 WT_001_W   25/07/~ 25/07/~ 02: 18    120    18     138 F      W       U      
    ##  2 WT_001_W   25/07/~ 25/07/~ 01: 48     60    48     108 F      W       D      
    ##  3 WT_001_W   25/07/~ 25/07/~ 02: 37    120    37     157 F      W       M      
    ##  4 WT_002_W   25/07/~ 25/07/~ 01: 03     60     3      63 F      W       U      
    ##  5 WT_002_W   25/07/~ 25/07/~ 01: 32     60    32      92 F      W       D      
    ##  6 WT_002_W   25/07/~ 25/07/~ 02: 00    120     0     120 F      W       M      
    ##  7 WT_003_W   25/07/~ 25/07/~ 02: 45    120    45     165 F      W       U      
    ##  8 WT_003_W   25/07/~ 25/07/~ 13: 00    780     0     780 F      W       D      
    ##  9 WT_003_W   25/07/~ 25/07/~ 03: 00    180     0     180 F      W       M      
    ## 10 WT_004_W   26/07/~ 26/07/~ 01: 21     60    21      81 F      W       U      
    ## # ... with 94 more rows, 2 more variables: experimentID <chr>, id <chr>, and
    ## #   abbreviated variable names 1: participant_id, 2: start_time, 3: stop_time,
    ## #   4: duration, 5: total_duration, 6: toilet_type, 7: activity
…
