…
## 1.1 Reading the data

You can include R code in the document as follows:

    ## Rows: 2310 Columns: 10
    ## -- Column specification --------------------------------------------------------
    ## Delimiter: ","
    ## chr (10): ExperimentID, ParticipantID, Activity, Activity_Sub_Type, Surface,...
    ## 
    ## i Use `spec()` to retrieve the full column specification for this data.
    ## i Specify the column types or set `show_col_types = FALSE` to quiet this message.

    ## # A tibble: 2,310 x 10
    ##    experimen~1 parti~2 activ~3 activ~4 surface hand  toile~5 sex   id    surfa~6
    ##    <chr>       <chr>   <chr>   <chr>   <chr>   <chr> <chr>   <chr> <chr> <chr>  
    ##  1 YPPXM4223O  CEW005  Urinat~ <NA>    Outsid~ Right Women   Fema~ 1 CE~ Door   
    ##  2 YPPXM4223O  CEW005  Urinat~ <NA>    Cubicl~ Right Women   Fema~ 1 CE~ Cubicle
    ##  3 YPPXM4223O  CEW005  Urinat~ <NA>    Toilet~ Left  Women   Fema~ 1 CE~ Cubicle
    ##  4 YPPXM4223O  CEW005  Urinat~ <NA>    Phone   Both  Women   Fema~ 1 CE~ Person~
    ##  5 YPPXM4223O  CEW005  Urinat~ <NA>    Toilet~ Both  Women   Fema~ 1 CE~ Cubicle
    ##  6 YPPXM4223O  CEW005  Urinat~ <NA>    Phone   Left  Women   Fema~ 1 CE~ Person~
    ##  7 YPPXM4223O  CEW005  Urinat~ <NA>    Clothi~ Both  Women   Fema~ 1 CE~ Person~
    ##  8 YPPXM4223O  CEW005  Urinat~ <NA>    Flush ~ Right Women   Fema~ 1 CE~ Cubicle
    ##  9 YPPXM4223O  CEW005  Urinat~ <NA>    Phone   Left  Women   Fema~ 1 CE~ Person~
    ## 10 YPPXM4223O  CEW005  Urinat~ <NA>    Cubicl~ Right Women   Fema~ 1 CE~ Cubicle
    ## # ... with 2,300 more rows, and abbreviated variable names 1: experiment_id,
    ## #   2: participant_id, 3: activity, 4: activity_sub_type, 5: toilet_type,
    ## #   6: surface_categories
…
    ## # A tibble: 2,310 x 10
    ##    experimen~1 parti~2 activ~3 activ~4 surface hand  toile~5 sex   id    surfa~6
    ##    <chr>       <chr>   <chr>   <chr>   <chr>   <chr> <chr>   <chr> <chr> <chr>  
    ##  1 YPPXM4223O  CEW005  Urinat~ <NA>    Outsid~ Right Women   Fema~ 1 CE~ Door   
    ##  2 YPPXM4223O  CEW005  Urinat~ <NA>    Cubicl~ Right Women   Fema~ 1 CE~ Cubicle
    ##  3 YPPXM4223O  CEW005  Urinat~ <NA>    Toilet~ Left  Women   Fema~ 1 CE~ Cubicle
    ##  4 YPPXM4223O  CEW005  Urinat~ <NA>    Phone   Both  Women   Fema~ 1 CE~ Person~
    ##  5 YPPXM4223O  CEW005  Urinat~ <NA>    Toilet~ Both  Women   Fema~ 1 CE~ Cubicle
    ##  6 YPPXM4223O  CEW005  Urinat~ <NA>    Phone   Left  Women   Fema~ 1 CE~ Person~
    ##  7 YPPXM4223O  CEW005  Urinat~ <NA>    Clothi~ Both  Women   Fema~ 1 CE~ Person~
    ##  8 YPPXM4223O  CEW005  Urinat~ <NA>    Flush ~ Right Women   Fema~ 1 CE~ Cubicle
    ##  9 YPPXM4223O  CEW005  Urinat~ <NA>    Phone   Left  Women   Fema~ 1 CE~ Person~
    ## 10 YPPXM4223O  CEW005  Urinat~ <NA>    Cubicl~ Right Women   Fema~ 1 CE~ Cubicle
    ## # ... with 2,300 more rows, and abbreviated variable names 1: experiment_id,
    ## #   2: participant_id, 3: activity, 4: activity_sub_type, 5: toilet_type,
    ## #   6: surface_categories
…
    ## # A tibble: 2,310 x 10
    ##    experimen~1 parti~2 activ~3 activ~4 surface hand  toile~5 sex   id    surfa~6
    ##    <chr>       <chr>   <chr>   <chr>   <chr>   <chr> <chr>   <chr> <chr> <chr>  
    ##  1 YPPXM4223O  CEW005  Urinat~ <NA>    Outsid~ Right Women   Fema~ 1 CE~ Door   
    ##  2 YPPXM4223O  CEW005  Urinat~ <NA>    Cubicl~ Right Women   Fema~ 1 CE~ Cubicle
    ##  3 YPPXM4223O  CEW005  Urinat~ <NA>    Toilet~ Left  Women   Fema~ 1 CE~ Cubicle
    ##  4 YPPXM4223O  CEW005  Urinat~ <NA>    Phone   Both  Women   Fema~ 1 CE~ Person~
    ##  5 YPPXM4223O  CEW005  Urinat~ <NA>    Toilet~ Both  Women   Fema~ 1 CE~ Cubicle
    ##  6 YPPXM4223O  CEW005  Urinat~ <NA>    Phone   Left  Women   Fema~ 1 CE~ Person~
    ##  7 YPPXM4223O  CEW005  Urinat~ <NA>    Clothi~ Both  Women   Fema~ 1 CE~ Person~
    ##  8 YPPXM4223O  CEW005  Urinat~ <NA>    Flush ~ Right Women   Fema~ 1 CE~ Cubicle
    ##  9 YPPXM4223O  CEW005  Urinat~ <NA>    Phone   Left  Women   Fema~ 1 CE~ Person~
    ## 10 YPPXM4223O  CEW005  Urinat~ <NA>    Cubicl~ Right Women   Fema~ 1 CE~ Cubicle
    ## # ... with 2,300 more rows, and abbreviated variable names 1: experiment_id,
    ## #   2: participant_id, 3: activity, 4: activity_sub_type, 5: toilet_type,
    ## #   6: surface_categories
…
